…
Basic usage
-----------

### Reading netcdf files

This package will let you read a netcdf file directly into a data frame. Here we will work with January ocean temperature data from [NOAA's World Ocean Atlas 2017](https://www.nodc.noaa.gov/OC5/woa18/) that has been clipped to the North Atlantic.

``` r
library(rcdo)
# Calculating vertical mean NOAA world ocean atlas data to the region around the UK
ff <- system.file("extdata", "woa18_decav_t01_01.nc", package = "rcdo")
# read all data into a data frame
nc_read(ff)
#> # A tibble: 581,400 x 11
#>    Longitude Latitude Depth  t_an  t_mn  t_dd  t_sd   t_se    t_oa  t_ma
#>        <dbl>    <dbl> <dbl> <dbl> <dbl> <dbl> <dbl>  <dbl>   <dbl> <dbl>
#>  1     -79.5     30.5     0  22.4  24.2   215 1.14  0.0776  1.75   -2.92
#>  2     -78.5     30.5     0  22.8  23.0    95 1.12  0.114   0.213  -2.60
#>  3     -77.5     30.5     0  22.8  22.6    81 0.773 0.0859 -0.179  -2.46
#>  4     -76.5     30.5     0  22.6  22.4    60 1.35  0.175  -0.193  -2.45
#>  5     -75.5     30.5     0  22.2  21.8    49 1.27  0.182  -0.454  -2.50
#>  6     -74.5     30.5     0  21.8  21.3    84 1.25  0.137  -0.568  -2.59
#>  7     -73.5     30.5     0  21.5  21.3    37 1.14  0.188  -0.224  -2.65
#>  8     -72.5     30.5     0  21.3  20.7    59 1.01  0.131  -0.557  -2.70
#>  9     -71.5     30.5     0  21.1  20.6    54 1.13  0.154  -0.520  -2.72
#> 10     -70.5     30.5     0  21.1  21.1    46 0.886 0.131   0.0258 -2.72
#> # … with 581,390 more rows, and 1 more variable: t_gp <dbl>

# Only read the averaged temperature field into a data frame
nc_read(ff, vars = "t_an")
#> # A tibble: 581,400 x 4
#>    Longitude Latitude Depth  t_an
#>        <dbl>    <dbl> <dbl> <dbl>
#>  1     -79.5     30.5     0  22.4
#>  2     -78.5     30.5     0  22.8
#>  3     -77.5     30.5     0  22.8
#>  4     -76.5     30.5     0  22.6
#>  5     -75.5     30.5     0  22.2
#>  6     -74.5     30.5     0  21.8
#>  7     -73.5     30.5     0  21.5
#>  8     -72.5     30.5     0  21.3
#>  9     -71.5     30.5     0  21.1
#> 10     -70.5     30.5     0  21.1
#> # … with 581,390 more rows
```
…
